{
"label": "Signature Scrolls",
"mapping": {
    "description": "system.description",
    "book_reference": "system.book_reference"
},
"entries": [{
    "id": "Ichi’s Second Sight",
	"name": "Ichi’s Second Sight",
	"description": "",
	"book_reference": "Shadowlands p.108"
},{
    "id": "Hasegawa’s Denial",
	"name": "Hasegawa’s Denial",
	"description": "",
	"book_reference": "Shadowlands p.108"
},{
    "id": "Maikara’s Rebuke",
	"name": "Maikara’s Rebuke",
	"description": "",
	"book_reference": "Shadowlands p.108"
}]
}
