{
"label": "Titles",
"mapping": {
    "description": "system.description",
    "book_reference": "system.book_reference"
},
"entries": [{
    "id": "Emerald Magistrate",
	"name": "Emerald Magistrate",
	"description": "<h2>Curriculum</h2><table><tr><td>Trade Skills</td><td>Skill Group</td></tr><tr><td>Fitness</td><td>Skill</td></tr><tr><td>Martial Arts [Choose One]</td><td>Skill</td></tr><tr><td>Performance</td><td>Skill</td></tr><tr><td><a class=\"compendium-link\" data-pack=\"l5r5e.core-techniques-kata\">(kata) Rank 1–2 Kata</a> (prereq)</td><td>Tech. Grp.</td></tr><tr><td><a class=\"entity-link content-link\" draggable=\"true\" data-uuid=\"Compendium.l5r5e.core-techniques-kata.L5RCoreKat000026\" data-pack=\"l5r5e.core-techniques-kata\" data-id=\"L5RCoreKat000026\">(kata) Open-Hand Style</a> (prereq)</td><td>Technique</td></tr><tr><td><a class=\"entity-link content-link\" draggable=\"true\" data-uuid=\"Compendium.l5r5e.core-techniques-shuji.L5RCoreShu000034\" data-pack=\"l5r5e.core-techniques-shuji\" data-id=\"L5RCoreShu000034\">(shuji) Shallow Waters</a> (prereq)</td><td>Technique</td></tr></table>",
	"book_reference": "Core Rulebook p.305"
},{
    "id": "Castellan",
	"name": "Castellan",
	"description": "<h2>Curriculum</h2><table><tr><td>Social Skills</td><td>Skill Group</td></tr><tr><td>Culture</td><td>Skill</td></tr><tr><td>Design</td><td>Skill</td></tr><tr><td>Government</td><td>Skill</td></tr><tr><td><a class=\"entity-link content-link\" draggable=\"true\" data-uuid=\"Compendium.l5r5e.core-techniques-shuji.L5RCoreShu000020\" data-pack=\"l5r5e.core-techniques-shuji\" data-id=\"L5RCoreShu000020\">(shuji) Rallying Cry</a> (prereq)</td><td>Technique</td></tr><tr><td><a class=\"entity-link content-link\" draggable=\"true\" data-uuid=\"Compendium.l5r5e.core-techniques-shuji.L5RCoreShu000031\" data-pack=\"l5r5e.core-techniques-shuji\" data-id=\"L5RCoreShu000031\">(shuji) Slippery Maneuvers</a> (prereq)</td><td>Technique</td></tr><tr><td><a class=\"entity-link content-link\" draggable=\"true\" data-uuid=\"Compendium.l5r5e.core-techniques-shuji.L5RCoreShu000011\" data-pack=\"l5r5e.core-techniques-shuji\" data-id=\"L5RCoreShu000011\">(shuji) Touchstone of Courage</a> (prereq)</td><td>Technique</td></tr></table>",
	"book_reference": "Court of Stones p.128"
},{
    "id": "Covert Agent",
	"name": "Covert Agent",
	"description": "<h2>Curriculum</h2><table><tr><td>Social Skills</td><td>Skill Group</td></tr><tr><td>Meditation</td><td>Skill</td></tr><tr><td><a class=\"entity-link content-link\" draggable=\"true\" data-uuid=\"Compendium.l5r5e.core-techniques-ninjutsu.L5RCoreNin000005\" data-pack=\"l5r5e.core-techniques-ninjutsu\" data-id=\"L5RCoreNin000005\">(ninjutsu) Artful Alibi</a> (prereq)</td><td>Technique</td></tr><tr><td><a class=\"entity-link content-link\" draggable=\"true\" data-uuid=\"Compendium.l5r5e.core-techniques-shuji.L5RCoreShu000002\" data-pack=\"l5r5e.core-techniques-shuji\" data-id=\"L5RCoreShu000002\">(shuji) Cadence</a> (prereq)</td><td>Technique</td></tr><tr><td><a class=\"entity-link content-link\" draggable=\"true\" data-uuid=\"Compendium.l5r5e.core-techniques-ninjutsu.L5RCoreNin000006\" data-pack=\"l5r5e.core-techniques-ninjutsu\" data-id=\"L5RCoreNin000006\">(ninjutsu) Cunning Distraction</a> (prereq)</td><td>Technique</td></tr><tr><td><a class=\"entity-link content-link\" draggable=\"true\" data-uuid=\"Compendium.l5r5e.core-techniques-ninjutsu.L5RCoreNin000012\" data-pack=\"l5r5e.core-techniques-ninjutsu\" data-id=\"L5RCoreNin000012\">(ninjutsu) To Float or Sink</a> (prereq)</td><td>Technique</td></tr><tr><td><a class=\"entity-link content-link\" draggable=\"true\" data-uuid=\"Compendium.l5r5e.core-techniques-ninjutsu.L5RCoreNin000013\" data-pack=\"l5r5e.core-techniques-ninjutsu\" data-id=\"L5RCoreNin000013\">(ninjutsu) What's Yours is Mine</a> (prereq)</td><td>Technique</td></tr></table>",
	"book_reference": "Court of Stones p.128"
},{
    "id": "Dreaded Enforcer",
	"name": "Dreaded Enforcer",
	"description": "<h2>Curriculum</h2><table><tr><td>Martial Skills</td><td>Skill Group</td></tr><tr><td>Medicine</td><td>Skill</td></tr><tr><td>Skulduggery</td><td>Skill</td></tr><tr><td><a class=\"entity-link content-link\" draggable=\"true\" data-uuid=\"Compendium.l5r5e.core-techniques-ninjutsu.L5RCoreNin000007\" data-pack=\"l5r5e.core-techniques-ninjutsu\" data-id=\"L5RCoreNin000007\">(ninjutsu) Deceitful Strike</a> (prereq)</td><td>Technique</td></tr><tr><td><a class=\"entity-link content-link\" draggable=\"true\" data-uuid=\"Compendium.l5r5e.core-techniques-ninjutsu.L5RCoreNin000008\" data-pack=\"l5r5e.core-techniques-ninjutsu\" data-id=\"L5RCoreNin000008\">(ninjutsu) Like a Ghost</a> (prereq)</td><td>Technique</td></tr><tr><td><a class=\"entity-link content-link\" draggable=\"true\" data-uuid=\"Compendium.l5r5e.core-techniques-ninjutsu.L5RCoreNin000009\" data-pack=\"l5r5e.core-techniques-ninjutsu\" data-id=\"L5RCoreNin000009\">(ninjutsu) Silent Elimination</a> (prereq)</td><td>Technique</td></tr><tr><td><a class=\"entity-link content-link\" draggable=\"true\" data-uuid=\"Compendium.l5r5e.core-techniques-ninjutsu.L5RCoreNin000011\" data-pack=\"l5r5e.core-techniques-ninjutsu\" data-id=\"L5RCoreNin000011\">(ninjutsu) Stillness of Death</a> (prereq)</td><td>Technique</td></tr></table>",
	"book_reference": "Court of Stones p.129"
},{
    "id": "Esteemed Negotiator",
	"name": "Esteemed Negotiator",
	"description": "<h2>Curriculum</h2><table><tr><td>Social Skills</td><td>Skill Group</td></tr><tr><td>Culture</td><td>Skill</td></tr><tr><td>Government</td><td>Skill</td></tr><tr><td>Sentiment</td><td>Skill</td></tr><tr><td><a class=\"compendium-link\" data-pack=\"l5r5e.core-techniques-shuji\">(shuji) Rank 1–3 Earth Shūji</a> (prereq)</td><td>Tech. Grp.</td></tr><tr><td><a class=\"entity-link content-link\" draggable=\"true\" data-uuid=\"Compendium.l5r5e.core-techniques-rituals.L5RCoreRit000013\" data-pack=\"l5r5e.core-techniques-rituals\" data-id=\"L5RCoreRit000013\">(ritual) The Ties that Bind</a> (prereq)</td><td>Technique</td></tr><tr><td><a class=\"entity-link content-link\" draggable=\"true\" data-uuid=\"Compendium.l5r5e.core-techniques-rituals.L5RCoreRit000012\" data-pack=\"l5r5e.core-techniques-rituals\" data-id=\"L5RCoreRit000012\">(ritual) Treaty Signing</a> (prereq)</td><td>Technique</td></tr></table>",
	"book_reference": "Court of Stones p.129"
},{
    "id": "Kenshinzen",
	"name": "Kenshinzen",
	"description": "<h2>Curriculum</h2><table><tr><td>Martial Skills</td><td>Skill Group</td></tr><tr><td>Social Skills</td><td>Skill Group</td></tr><tr><td>Culture</td><td>Skill</td></tr><tr><td>Sentiment</td><td>Skill</td></tr><tr><td><a class=\"compendium-link\" data-pack=\"l5r5e.core-techniques-kata\">(kata) Rank 1–5 Close Combat Kata</a> (prereq)</td><td>Tech. Grp.</td></tr><tr><td><a class=\"compendium-link\" data-pack=\"l5r5e.core-techniques-shuji\">(shuji) Rank 1–5 Void Shūji</a> (prereq)</td><td>Tech. Grp.</td></tr><tr><td><a class=\"entity-link content-link\" draggable=\"true\" data-uuid=\"Compendium.l5r5e.core-techniques-rituals.L5RCoreRit000001\" data-pack=\"l5r5e.core-techniques-rituals\" data-id=\"L5RCoreRit000001\">(ritual) Tea Ceremony</a> (prereq)</td><td>Technique</td></tr></table>",
	"book_reference": "Court of Stones p.130"
},{
    "id": "Kyuden Asako Shieldbearer",
	"name": "Kyuden Asako Shieldbearer",
	"description": "<h2>Curriculum</h2><table><tr><td>Scholar Skills</td><td>Skill Group</td></tr><tr><td>Martial Arts [Melee]</td><td>Skill</td></tr><tr><td>Martial Arts [Ranged]</td><td>Skill</td></tr><tr><td>Meditation</td><td>Skill</td></tr><tr><td>Tactics</td><td>Skill</td></tr><tr><td><a class=\"compendium-link\" data-pack=\"l5r5e.core-techniques-kata\">(kata) Rank 1–3 Kata</a> (prereq)</td><td>Tech. Grp.</td></tr><tr><td><a class=\"entity-link content-link\" draggable=\"true\" data-uuid=\"Compendium.l5r5e.core-techniques-rituals.L5RCoreRit000004\" data-pack=\"l5r5e.core-techniques-rituals\" data-id=\"L5RCoreRit000004\">(ritual) Cleansing Rite</a> (prereq)</td><td>Technique</td></tr></table>",
	"book_reference": "Court of Stones p.130"
},{
    "id": "Master Artisan",
	"name": "Master Artisan",
	"description": "<h2>Curriculum</h2><table><tr><td>Artisan Skills</td><td>Skill Group</td></tr><tr><td>Courtesy</td><td>Skill</td></tr><tr><td>Culture</td><td>Skill</td></tr><tr><td>Medicine</td><td>Skill</td></tr><tr><td>Meditation</td><td>Skill</td></tr><tr><td><a class=\"entity-link content-link\" draggable=\"true\" data-uuid=\"Compendium.l5r5e.core-techniques-shuji.L5RCoreShu000043\" data-pack=\"l5r5e.core-techniques-shuji\" data-id=\"L5RCoreShu000043\">(shuji) All Arts Are One</a> (prereq)</td><td>Technique</td></tr><tr><td><a class=\"entity-link content-link\" draggable=\"true\" data-uuid=\"Compendium.l5r5e.core-techniques-rituals.L5RCoreRit000011\" data-pack=\"l5r5e.core-techniques-rituals\" data-id=\"L5RCoreRit000011\">(ritual) Formal Tea Ceremony</a> (prereq)</td><td>Technique</td></tr></table>",
	"book_reference": "Court of Stones p.130"
},{
    "id": "Winter Court Champion",
	"name": "Winter Court Champion",
	"description": "<h2>Curriculum</h2><table><tr><td>Artisan Skills</td><td>Skill Group</td></tr><tr><td>Social Skills</td><td>Skill Group</td></tr><tr><td><a class=\"entity-link content-link\" draggable=\"true\" data-uuid=\"Compendium.l5r5e.core-techniques-shuji.L5RCoreShu000003\" data-pack=\"l5r5e.core-techniques-shuji\" data-id=\"L5RCoreShu000003\">(shuji) Artisan’s Appraisal</a> (prereq)</td><td>Technique</td></tr><tr><td><a class=\"entity-link content-link\" draggable=\"true\" data-uuid=\"Compendium.l5r5e.core-techniques-rituals.L5RCoreRit000011\" data-pack=\"l5r5e.core-techniques-rituals\" data-id=\"L5RCoreRit000011\">(ritual) Formal Tea Ceremony</a> (prereq)</td><td>Technique</td></tr><tr><td><a class=\"entity-link content-link\" draggable=\"true\" data-uuid=\"Compendium.l5r5e.core-techniques-shuji.L5RCoreShu000052\" data-pack=\"l5r5e.core-techniques-shuji\" data-id=\"L5RCoreShu000052\">(shuji) Fun and Games</a> (prereq)</td><td>Technique</td></tr><tr><td><a class=\"entity-link content-link\" draggable=\"true\" data-uuid=\"Compendium.l5r5e.core-techniques-shuji.L5RCoreShu000047\" data-pack=\"l5r5e.core-techniques-shuji\" data-id=\"L5RCoreShu000047\">(shuji) Offend the Sensibilities</a> (prereq)</td><td>Technique</td></tr><tr><td><a class=\"entity-link content-link\" draggable=\"true\" data-uuid=\"Compendium.l5r5e.core-techniques-shuji.L5RCoreShu000050\" data-pack=\"l5r5e.core-techniques-shuji\" data-id=\"L5RCoreShu000050\">(shuji) Spiteful Loss</a> (prereq)</td><td>Technique</td></tr></table>",
	"book_reference": "Court of Stones p.131"
},{
    "id": "Seven fold Palace Acolyte",
	"name": "Seven fold Palace Acolyte",
	"description": "<h2>Curriculum</h2><table><tr><td>Trade Skills</td><td>Skill Group</td></tr><tr><td>Aesthetics</td><td>Skill</td></tr><tr><td>Design</td><td>Skill</td></tr><tr><td>Fitness</td><td>Skill</td></tr><tr><td>Meditation</td><td>Skill</td></tr><tr><td>Smithing</td><td>Skill</td></tr><tr><td><a class=\"entity-link content-link\" draggable=\"true\" data-uuid=\"Compendium.l5r5e.core-techniques-shuji.L5RCoreShu000003\" data-pack=\"l5r5e.core-techniques-shuji\" data-id=\"L5RCoreShu000003\">(shuji) Artisan’s Appraisal</a> (prereq)</td><td>Technique</td></tr></table>",
	"book_reference": "Court of Stones p.131"
},{
    "id": "The Damned",
	"name": "The Damned",
	"description": "<h2>Curriculum</h2><table><tr><td>Martial Skills</td><td>Skill Group</td></tr><tr><td>Medicine</td><td>Skill</td></tr><tr><td>Survival</td><td>Skill</td></tr><tr><td>Theology</td><td>Skill</td></tr><tr><td><a class=\"compendium-link\" data-pack=\"l5r5e.core-techniques-kata\">(kata) Rank 1-2 Kata</a> (prereq)</td><td>Tech. Grp.</td></tr><tr><td><a class=\"entity-link content-link\" draggable=\"true\" data-uuid=\"Compendium.l5r5e.core-techniques-kata.L5RCoreKat000003\" data-pack=\"l5r5e.core-techniques-kata\" data-id=\"L5RCoreKat000003\">(kata) Heartpiercing Strike</a> (prereq)</td><td>Technique</td></tr><tr><td><a class=\"entity-link content-link\" draggable=\"true\" data-uuid=\"Compendium.l5r5e.core-techniques-shuji.L5RCoreShu000020\" data-pack=\"l5r5e.core-techniques-shuji\" data-id=\"L5RCoreShu000020\">(shuji) Rallying Cry</a> (prereq)</td><td>Technique</td></tr></table>",
	"book_reference": "Shadowlands p.128"
},{
    "id": "Harvester",
	"name": "Harvester",
	"description": "<h2>Curriculum</h2><table><tr><td>Martial Skills</td><td>Skill Group</td></tr><tr><td>Smithing</td><td>Skill</td></tr><tr><td>Survival</td><td>Skill</td></tr><tr><td>Theology</td><td>Skill</td></tr><tr><td><a class=\"compendium-link\" data-pack=\"l5r5e.core-techniques-kata\">(kata) Rank 1-2 Kata</a> (prereq)</td><td>Tech. Grp.</td></tr><tr><td><a class=\"compendium-link\" data-pack=\"l5r5e.core-techniques-rituals\">(ritual) Rank 1-2 Rituals</a> (prereq)</td><td>Tech. Grp.</td></tr><tr><td><a class=\"entity-link content-link\" draggable=\"true\" data-uuid=\"Compendium.l5r5e.core-techniques-ninjutsu.L5RCoreNin000002\" data-pack=\"l5r5e.core-techniques-ninjutsu\" data-id=\"L5RCoreNin000002\">(ninjutsu) Skulk</a> (prereq)</td><td>Technique</td></tr></table>",
	"book_reference": "Shadowlands p.128"
},{
    "id": "Twenty-Goblin Crab",
	"name": "Twenty-Goblin Crab",
	"description": "<h2>Curriculum</h2><table><tr><td>Martial Skills</td><td>Skill Group</td></tr><tr><td>Social Skills</td><td>Skill Group</td></tr><tr><td>Culture</td><td>Skill</td></tr><tr><td>Government</td><td>Skill</td></tr><tr><td><a class=\"compendium-link\" data-pack=\"l5r5e.core-techniques-kata\">(kata) Rank 1-2 Kata</a> (prereq)</td><td>Tech. Grp.</td></tr><tr><td><a class=\"entity-link content-link\" draggable=\"true\" data-uuid=\"Compendium.l5r5e.core-techniques-kata.L5RCoreKat000021\" data-pack=\"l5r5e.core-techniques-kata\" data-id=\"L5RCoreKat000021\">(kata) Thunderclap Strike</a> (prereq)</td><td>Technique</td></tr><tr><td><a class=\"entity-link content-link\" draggable=\"true\" data-uuid=\"Compendium.l5r5e.core-techniques-shuji.L5RCoreShu000017\" data-pack=\"l5r5e.core-techniques-shuji\" data-id=\"L5RCoreShu000017\">(shuji) Stonewall Tactics</a> (prereq)</td><td>Technique</td></tr></table>",
	"book_reference": "Shadowlands p.128"
},{
    "id": "Witch Hunter",
	"name": "Witch Hunter",
	"description": "<h2>Curriculum</h2><table><tr><td>Martial Skills</td><td>Skill Group</td></tr><tr><td>Scholar Skills</td><td>Skill Group</td></tr><tr><td>Command</td><td>Skill</td></tr><tr><td>Skulduggery</td><td>Skill</td></tr><tr><td><a class=\"compendium-link\" data-pack=\"l5r5e.core-techniques-kata\">(kata) Rank 1-4 Kata</a> (prereq)</td><td>Tech. Grp.</td></tr><tr><td><a class=\"compendium-link\" data-pack=\"l5r5e.core-techniques-rituals\">(ritual) Rank 1-5 Rituals</a> (prereq)</td><td>Tech. Grp.</td></tr><tr><td><a class=\"entity-link content-link\" draggable=\"true\" data-uuid=\"Compendium.l5r5e.core-techniques-shuji.L5RCoreShu000012\" data-pack=\"l5r5e.core-techniques-shuji\" data-id=\"L5RCoreShu000012\">(shuji) Honest Assessment</a> (prereq)</td><td>Technique</td></tr></table>",
	"book_reference": "Shadowlands p.129"
},{
    "id": "Advisor",
	"name": "Advisor",
	"description": "<h2>Curriculum</h2><table><tr><td>Scholar Skills</td><td>Skill Group</td></tr><tr><td>Commerce</td><td>Skill</td></tr><tr><td>Courtesy</td><td>Skill</td></tr><tr><td>Design</td><td>Skill</td></tr><tr><td><a class=\"entity-link content-link\" draggable=\"true\" data-uuid=\"Compendium.l5r5e.core-techniques-shuji.L5RCoreShu000018\" data-pack=\"l5r5e.core-techniques-shuji\" data-id=\"L5RCoreShu000018\">(shuji) Fanning the Flames</a> (prereq)</td><td>Technique</td></tr><tr><td><a class=\"entity-link content-link\" draggable=\"true\" data-uuid=\"Compendium.l5r5e.core-techniques-shuji.L5RCoreShu000008\" data-pack=\"l5r5e.core-techniques-shuji\" data-id=\"L5RCoreShu000008\">(shuji) Feigned Opening</a> (prereq)</td><td>Technique</td></tr><tr><td><a class=\"entity-link content-link\" draggable=\"true\" data-uuid=\"Compendium.l5r5e.core-techniques-shuji.L5RCoreShu000017\" data-pack=\"l5r5e.core-techniques-shuji\" data-id=\"L5RCoreShu000017\">(shuji) Stonewall Tactics</a> (prereq)</td><td>Technique</td></tr></table>",
	"book_reference": "Emerald Empire"
},{
    "id": "Daimyo",
	"name": "Daimyo",
	"description": "<h2>Curriculum</h2><table><tr><td>Social Skills</td><td>Skill Group</td></tr><tr><td>Culture</td><td>SKill</td></tr><tr><td>Government</td><td>Skill</td></tr><tr><td>Tactics</td><td>Skill</td></tr><tr><td><a class=\"entity-link content-link\" draggable=\"true\" data-uuid=\"Compendium.l5r5e.core-techniques-shuji.L5RCoreShu000037\" data-pack=\"l5r5e.core-techniques-shuji\" data-id=\"L5RCoreShu000037\">(shuji) Courtier’s Resolve</a> (prereq)</td><td>Technique</td></tr><tr><td><a class=\"entity-link content-link\" draggable=\"true\" data-uuid=\"Compendium.l5r5e.core-techniques-shuji.L5RCoreShu000034\" data-pack=\"l5r5e.core-techniques-shuji\" data-id=\"L5RCoreShu000034\">(shuji) Shallow Waters</a> (prereq)</td><td>Technique</td></tr><tr><td><a class=\"entity-link content-link\" draggable=\"true\" data-uuid=\"Compendium.l5r5e.core-techniques-shuji.L5RCoreShu000026\" data-pack=\"l5r5e.core-techniques-shuji\" data-id=\"L5RCoreShu000026\">(shuji) Stirring the Embers</a> (prereq)</td><td>Technique</td></tr></table>",
	"book_reference": "Emerald Empire"
},{
    "id": "Spy",
	"name": "Spy",
	"description": "<h2>Curriculum</h2><table><tr><td>Social Skills</td><td>Skill Group</td></tr><tr><td>Government</td><td>Skill</td></tr><tr><td>Sentiment</td><td>Skill</td></tr><tr><td>Skulduggery</td><td>Skill</td></tr><tr><td><a class=\"compendium-link\" data-pack=\"l5r5e.core-techniques-shuji\">(shuji) Rank 1-5 Air Shuji</a> (prereq)</td><td>Tech. Grp.</td></tr><tr><td><a class=\"entity-link content-link\" draggable=\"true\" data-uuid=\"Compendium.l5r5e.core-techniques-shuji.L5RCoreShu000034\" data-pack=\"l5r5e.core-techniques-shuji\" data-id=\"L5RCoreShu000034\">(shuji) Shallow Waters</a> (prereq)</td><td>Technique</td></tr><tr><td><a class=\"entity-link content-link\" draggable=\"true\" data-uuid=\"Compendium.l5r5e.core-techniques-ninjutsu.L5RCoreNin000002\" data-pack=\"l5r5e.core-techniques-ninjutsu\" data-id=\"L5RCoreNin000002\">(ninjutsu) Skulk</a> (prereq)</td><td>Technique</td></tr></table>",
	"book_reference": "Emerald Empire"
},{
    "id": "Gunso",
	"name": "Gunso",
	"description": "<h2>Curriculum</h2><table><tr><td>Martial Skills</td><td>Skill Group</td></tr><tr><td>Command</td><td>Skill</td></tr><tr><td>Government</td><td>Skill</td></tr><tr><td><a class=\"compendium-link\" data-pack=\"l5r5e.core-techniques-kata\">(kata) Rank 1-4 Kata</a></td><td>Tech. Grp.</td></tr><tr><td><a class=\"entity-link content-link\" draggable=\"true\" data-uuid=\"Compendium.l5r5e.core-techniques-shuji.L5RCoreShu000020\" data-pack=\"l5r5e.core-techniques-shuji\" data-id=\"L5RCoreShu000020\">(shuji) Rallying Cry</a> (prereq)</td><td>Technique</td></tr><tr><td><a class=\"entity-link content-link\" draggable=\"true\" data-uuid=\"Compendium.l5r5e.core-techniques-shuji.L5RCoreShu000026\" data-pack=\"l5r5e.core-techniques-shuji\" data-id=\"L5RCoreShu000026\">(shuji) Stirring the Embers</a> (prereq)</td><td>Technique</td></tr><tr><td><a class=\"entity-link content-link\" draggable=\"true\" data-uuid=\"Compendium.l5r5e.core-techniques-shuji.L5RCoreShu000011\" data-pack=\"l5r5e.core-techniques-shuji\" data-id=\"L5RCoreShu000011\">(shuji) Touchstone of Courage</a> (prereq)</td><td>Technique</td></tr></table>",
	"book_reference": "Emerald Empire"
},{
    "id": "Clan Magistrate",
	"name": "Clan Magistrate",
	"description": "<h2>Curriculum</h2><table><tr><td>Scholar Skills</td><td>Skill Group</td></tr><tr><td>Social Skills</td><td>Skill Group</td></tr><tr><td>Fitness</td><td>Skill</td></tr><tr><td>Martial Arts [Melee]</td><td>Skill</td></tr><tr><td><a class=\"entity-link content-link\" draggable=\"true\" data-uuid=\"Compendium.l5r5e.core-techniques-kata.L5RCoreKat000029\" data-pack=\"l5r5e.core-techniques-kata\" data-id=\"L5RCoreKat000029\">(kata) Coiling Serpent Style</a> (prereq)</td><td>Technique</td></tr><tr><td><a class=\"entity-link content-link\" draggable=\"true\" data-uuid=\"Compendium.l5r5e.core-techniques-shuji.L5RCoreShu000006\" data-pack=\"l5r5e.core-techniques-shuji\" data-id=\"L5RCoreShu000006\">(shuji) Prey on the Weak</a> (prereq)</td><td>Technique</td></tr><tr><td><a class=\"entity-link content-link\" draggable=\"true\" data-uuid=\"Compendium.l5r5e.core-techniques-shuji.L5RCoreShu000023\" data-pack=\"l5r5e.core-techniques-shuji\" data-id=\"L5RCoreShu000023\">(shuji) Truth Burns through Lies</a> (prereq)</td><td>Technique</td></tr></table>",
	"book_reference": "Emerald Empire"
},{
    "id": "Monastic Acolyte",
	"name": "Monastic Acolyte",
	"description": "<h2>Curriculum</h2><table><tr><td>Martial Skills</td><td>Skill Group</td></tr><tr><td>Scholar Skills</td><td>Skill Group</td></tr><tr><td>Aesthetics</td><td>Skill</td></tr><tr><td>Composition</td><td>Skill</td></tr><tr><td><a class=\"entity-link content-link\" draggable=\"true\" data-uuid=\"Compendium.l5r5e.core-techniques-kiho.L5RCoreKih000001\" data-pack=\"l5r5e.core-techniques-kiho\" data-id=\"L5RCoreKih000001\">(kiho) Cleansing Spirit</a> (prereq)</td><td>Technique</td></tr><tr><td><a class=\"entity-link content-link\" draggable=\"true\" data-uuid=\"Compendium.l5r5e.core-techniques-kiho.L5RCoreKih000017\" data-pack=\"l5r5e.core-techniques-kiho\" data-id=\"L5RCoreKih000017\">(kiho) Ki Protection</a> (prereq)</td><td>Technique</td></tr><tr><td><a class=\"entity-link content-link\" draggable=\"true\" data-uuid=\"Compendium.l5r5e.core-techniques-kiho.L5RCoreKih000022\" data-pack=\"l5r5e.core-techniques-kiho\" data-id=\"L5RCoreKih000022\">(kiho) Still the Elements</a> (prereq)</td><td>Technique</td></tr></table>",
	"book_reference": "Emerald Empire"
},{
    "id": "Priest",
	"name": "Priest",
	"description": "<h2>Curriculum</h2><table><tr><td>Social Skills</td><td>Skill Group</td></tr><tr><td>Composition</td><td>Skill</td></tr><tr><td>Culture</td><td>Skill</td></tr><tr><td>Theology</td><td>Skill</td></tr><tr><td><a class=\"compendium-link\" data-pack=\"l5r5e.core-techniques-rituals\">(ritual) Rank 1-5 Rituals</a></td><td>Tech. Grp.</td></tr><tr><td><a class=\"entity-link content-link\" draggable=\"true\" data-uuid=\"Compendium.l5r5e.core-techniques-shuji.L5RCoreShu000014\" data-pack=\"l5r5e.core-techniques-shuji\" data-id=\"L5RCoreShu000014\">(shuji) Civility Foremost</a> (prereq)</td><td>Technique</td></tr><tr><td><a class=\"entity-link content-link\" draggable=\"true\" data-uuid=\"Compendium.l5r5e.core-techniques-shuji.L5RCoreShu000041\" data-pack=\"l5r5e.core-techniques-shuji\" data-id=\"L5RCoreShu000041\">(shuji) Rouse the Soul</a> (prereq)</td><td>Technique</td></tr></table>",
	"book_reference": "Emerald Empire"
},{
    "id": "Yojimbo",
	"name": "Yojimbo",
	"description": "<h2>Curriculum</h2><table><tr><td>Martial Skills</td><td>Skill Group</td></tr><tr><td>Government</td><td>Skill</td></tr><tr><td>Medicine</td><td>Skill</td></tr><tr><td>Sentiment</td><td>Skill</td></tr><tr><td><a class=\"entity-link content-link\" draggable=\"true\" data-uuid=\"Compendium.l5r5e.core-techniques-kata.L5RCoreKat000023\" data-pack=\"l5r5e.core-techniques-kata\" data-id=\"L5RCoreKat000023\">(kata) Iaijutsu Cut: Crossing Blade</a> (prereq)</td><td>Technique</td></tr><tr><td><a class=\"entity-link content-link\" draggable=\"true\" data-uuid=\"Compendium.l5r5e.core-techniques-kata.L5RCoreKat000022\" data-pack=\"l5r5e.core-techniques-kata\" data-id=\"L5RCoreKat000022\">(kata) Iaijutsu Cut: Rising Blade</a> (prereq)</td><td>Technique</td></tr><tr><td><a class=\"entity-link content-link\" draggable=\"true\" data-uuid=\"Compendium.l5r5e.core-techniques-kata.L5RCoreKat000007\" data-pack=\"l5r5e.core-techniques-kata\" data-id=\"L5RCoreKat000007\">(kata) Warrior’s Resolve</a> (prereq)</td><td>Technique</td></tr></table>",
	"book_reference": "Emerald Empire"
},{
    "id": "Yoriki",
	"name": "Yoriki",
	"description": "<h2>Curriculum</h2><table><tr><td>Social Skills</td><td>Skill Group</td></tr><tr><td>Government</td><td>Skill</td></tr><tr><td>Martial Arts [Melee]</td><td>Skill</td></tr><tr><td>Skulduggery</td><td>Skill</td></tr><tr><td><a class=\"compendium-link\" data-pack=\"l5r5e.core-techniques-kata\">(kata) Rank 1-3 Kata</a></td><td>Tech. Grp.</td></tr><tr><td><a class=\"entity-link content-link\" draggable=\"true\" data-uuid=\"Compendium.l5r5e.core-techniques-shuji.L5RCoreShu000018\" data-pack=\"l5r5e.core-techniques-shuji\" data-id=\"L5RCoreShu000018\">(shuji) Fanning the Flames</a> (prereq)</td><td>Technique</td></tr><tr><td><a class=\"entity-link content-link\" draggable=\"true\" data-uuid=\"Compendium.l5r5e.core-techniques-shuji.L5RCoreShu000034\" data-pack=\"l5r5e.core-techniques-shuji\" data-id=\"L5RCoreShu000034\">(shuji) Shallow Waters</a> (prereq)</td><td>Technique</td></tr></table>",
	"book_reference": "Emerald Empire"
},{
    "id": "Ashigaru",
	"name": "Ashigaru",
	"description": "<h2>Curriculum</h2><table><tr><td>Martial Skills</td><td>Skill Group</td></tr><tr><td>Courtesy</td><td>Skill</td></tr><tr><td>Command</td><td>Skill</td></tr><tr><td>Survival</td><td>Skill</td></tr><tr><td><a class=\"compendium-link\" data-pack=\"l5r5e.core-techniques-kata\">(kata) Rank 1-2 Kata</a> (prereq)</td><td>Tech. Grp.</td></tr><tr><td><a class=\"entity-link content-link\" draggable=\"true\" data-uuid=\"Compendium.l5r5e.core-techniques-kata.L5RCoreKat000066\" data-pack=\"l5r5e.core-techniques-kata\" data-id=\"L5RCoreKat000066\">(kata) Thicket's Embrace Style</a> (prereq)</td><td>Technique</td></tr><tr><td><a class=\"entity-link content-link\" draggable=\"true\" data-uuid=\"Compendium.l5r5e.core-techniques-shuji.L5RCoreShu000031\" data-pack=\"l5r5e.core-techniques-shuji\" data-id=\"L5RCoreShu000031\">(shuji) Slippery Maneuvers</a> (prereq)</td><td>Technique</td></tr></table>",
	"book_reference": "Fields of Victory p.131"
},{
    "id": "Deathseeker",
	"name": "Deathseeker",
	"description": "<h2>Curriculum</h2><table><tr><td>Martial Skills</td><td>Skill Group</td></tr><tr><td>Courtesy</td><td>Skill</td></tr><tr><td>Labor</td><td>Skill</td></tr><tr><td>Theology</td><td>Skill</td></tr><tr><td><a class=\"compendium-link\" data-pack=\"l5r5e.core-techniques-kata\">(kata) Rank 1-3 Kata</a> (prereq)</td><td>Tech. Grp.</td></tr><tr><td><a class=\"entity-link content-link\" draggable=\"true\" data-uuid=\"Compendium.l5r5e.core-techniques-shuji.L5RCoreShu000038\" data-pack=\"l5r5e.core-techniques-shuji\" data-id=\"L5RCoreShu000038\">(shuji) A Samurai’s Fate</a> (prereq)</td><td>Technique</td></tr><tr><td><a class=\"entity-link content-link\" draggable=\"true\" data-uuid=\"Compendium.l5r5e.core-techniques-shuji.L5RCoreShu000086\" data-pack=\"l5r5e.core-techniques-shuji\" data-id=\"L5RCoreShu000086\">(shuji) Moment of Glory</a> (prereq)</td><td>Technique</td></tr></table>",
	"book_reference": "Fields of Victory p.132"
},{
    "id": "Elemental Guard",
	"name": "Elemental Guard",
	"description": "<h2>Curriculum</h2><table><tr><td>Martial Skills</td><td>Skill Group</td></tr><tr><td>Command</td><td>Skill</td></tr><tr><td>Government</td><td>Skill</td></tr><tr><td>Medicine</td><td>Skill</td></tr><tr><td><a class=\"entity-link content-link\" draggable=\"true\" data-uuid=\"Compendium.l5r5e.core-techniques-rituals.L5RCoreRit000027\" data-pack=\"l5r5e.core-techniques-rituals\" data-id=\"L5RCoreRit000027\">(ritual) Beseech Shiba's Calm</a> (prereq)</td><td>Technique</td></tr><tr><td><a class=\"entity-link content-link\" draggable=\"true\" data-uuid=\"Compendium.l5r5e.core-techniques-kata.L5RCoreKat000008\" data-pack=\"l5r5e.core-techniques-kata\" data-id=\"L5RCoreKat000008\">(kata) Tactical Assessment</a> (prereq)</td><td>Technique</td></tr><tr><td><a class=\"entity-link content-link\" draggable=\"true\" data-uuid=\"Compendium.l5r5e.core-techniques-kata.L5RCoreKat000007\" data-pack=\"l5r5e.core-techniques-kata\" data-id=\"L5RCoreKat000007\">(kata) Warrior’s Resolve</a> (prereq)</td><td>Technique</td></tr></table>",
	"book_reference": "Fields of Victory p.132"
},{
    "id": "Elemental Legionnaire",
	"name": "Elemental Legionnaire",
	"description": "<h2>Curriculum</h2><table><tr><td>Martial Skills</td><td>Skill Group</td></tr><tr><td>Command</td><td>Skill</td></tr><tr><td>Medicine</td><td>Skill</td></tr><tr><td>Smithing</td><td>Skill</td></tr><tr><td><a class=\"compendium-link\" data-pack=\"l5r5e.core-techniques-kata\">(kata) Rank 1-3 Kata</a> (prereq)</td><td>Tech. Grp.</td></tr><tr><td><a class=\"entity-link content-link\" draggable=\"true\" data-uuid=\"Compendium.l5r5e.core-techniques-shuji.L5RCoreShu000076\" data-pack=\"l5r5e.core-techniques-shuji\" data-id=\"L5RCoreShu000076\">(shuji) Great Anvil's Measure</a> (prereq)</td><td>Technique</td></tr><tr><td><a class=\"entity-link content-link\" draggable=\"true\" data-uuid=\"Compendium.l5r5e.core-techniques-shuji.L5RCoreShu000086\" data-pack=\"l5r5e.core-techniques-shuji\" data-id=\"L5RCoreShu000086\">(shuji) Moment of Glory</a> (prereq)</td><td>Technique</td></tr></table>",
	"book_reference": "Fields of Victory p.133"
},{
    "id": "General",
	"name": "General",
	"description": "<h2>Curriculum</h2><table><tr><td>Social Skills</td><td>Skill Group</td></tr><tr><td>Martial Skills</td><td>Skill Group</td></tr><tr><td>Government</td><td>Skill</td></tr><tr><td>Survival</td><td>Skill</td></tr><tr><td><a class=\"compendium-link\" data-pack=\"l5r5e.core-techniques-kata\">(kata) Rank 1-2 Kata</a> (prereq)</td><td>Tech. Grp.</td></tr><tr><td><a class=\"compendium-link\" data-pack=\"l5r5e.core-techniques-rituals\">(ritual) Rank 1-3 Rituals</a> (prereq)</td><td>Tech. Grp.</td></tr><tr><td><a class=\"compendium-link\" data-pack=\"l5r5e.core-techniques-shuji\">(shuji) Rank 1-4 Shuji</a> (prereq)</td><td>Tech. Grp.</td></tr></table>",
	"book_reference": "Fields of Victory p.133"
},{
    "id": "Lion's Pride Warrior",
	"name": "Lion's Pride Warrior",
	"description": "<h2>Curriculum</h2><table><tr><td>Martial Skills</td><td>Skill Group</td></tr><tr><td>Command</td><td>Skill</td></tr><tr><td>Sentiment</td><td>Skill</td></tr><tr><td>Survival</td><td>Skill</td></tr><tr><td><a class=\"compendium-link\" data-pack=\"l5r5e.core-techniques-kata\">(kata) Rank 1-3 Kata</a> (prereq)</td><td>Tech. Grp.</td></tr><tr><td><a class=\"entity-link content-link\" draggable=\"true\" data-uuid=\"Compendium.l5r5e.core-techniques-shuji.L5RCoreShu000038\" data-pack=\"l5r5e.core-techniques-shuji\" data-id=\"L5RCoreShu000038\">(shuji) A Samurai’s Fate</a> (prereq)</td><td>Technique</td></tr><tr><td><a class=\"entity-link content-link\" draggable=\"true\" data-uuid=\"Compendium.l5r5e.core-techniques-shuji.L5RCoreShu000085\" data-pack=\"l5r5e.core-techniques-shuji\" data-id=\"L5RCoreShu000085\">(shuji) Battle of No Escape</a> (prereq)</td><td>Technique</td></tr></table>",
	"book_reference": "Fields of Victory p.133"
},{
    "id": "Master Saboteur",
	"name": "Master Saboteur",
	"description": "<h2>Curriculum</h2><table><tr><td>Trade Skills</td><td>Skill Group</td></tr><tr><td>Government</td><td>Skill</td></tr><tr><td>Martial Arts [Unarmed]</td><td>Skill</td></tr><tr><td>Medicine</td><td>Skill</td></tr><tr><td><a class=\"compendium-link\" data-pack=\"l5r5e.core-techniques-ninjutsu\">(ninjutsu) Rank 1-2 Ninjutsu</a> (prereq)</td><td>Tech. Grp.</td></tr><tr><td><a class=\"entity-link content-link\" draggable=\"true\" data-uuid=\"Compendium.l5r5e.core-techniques-rituals.L5RCoreRit000030\" data-pack=\"l5r5e.core-techniques-rituals\" data-id=\"L5RCoreRit000030\">(ritual) Imbue Thunder</a> (prereq)</td><td>Technique</td></tr><tr><td><a class=\"entity-link content-link\" draggable=\"true\" data-uuid=\"Compendium.l5r5e.core-techniques-ninjutsu.L5RCoreNin000018\" data-pack=\"l5r5e.core-techniques-ninjutsu\" data-id=\"L5RCoreNin000018\">(ninjutsu) Wreak Havoc</a> (prereq)</td><td>Technique</td></tr></table>",
	"book_reference": "Fields of Victory p.134"
},{
    "id": "Poet of War",
	"name": "Poet of War",
	"description": "<h2>Curriculum</h2><table><tr><td>Social Skills</td><td>Skill Group</td></tr><tr><td>Composition</td><td>Skill</td></tr><tr><td>Culture</td><td>Skill</td></tr><tr><td>Sentiment</td><td>Skill</td></tr><tr><td><a class=\"compendium-link\" data-pack=\"l5r5e.core-techniques-shuji\">(shuji) Rank 1-2 Fire Shuji</a> (prereq)</td><td>Tech. Grp.</td></tr><tr><td><a class=\"entity-link content-link\" draggable=\"true\" data-uuid=\"Compendium.l5r5e.core-techniques-shuji.L5RCoreShu000072\" data-pack=\"l5r5e.core-techniques-shuji\" data-id=\"L5RCoreShu000072\">(shuji) Borrowed Courage</a> (prereq)</td><td>Technique</td></tr><tr><td><a class=\"entity-link content-link\" draggable=\"true\" data-uuid=\"Compendium.l5r5e.core-techniques-shuji.L5RCoreShu000082\" data-pack=\"l5r5e.core-techniques-shuji\" data-id=\"L5RCoreShu000082\">(shuji) Coursing March Chant</a> (prereq)</td><td>Technique</td></tr></table>",
	"book_reference": "Fields of Victory p.134"
},{
    "id": "Quartermaster",
	"name": "Quartermaster",
	"description": "<h2>Curriculum</h2><table><tr><td>Trade Skills</td><td>Skill Group</td></tr><tr><td>Courtesy</td><td>Skill</td></tr><tr><td>Government</td><td>Skill</td></tr><tr><td>Tactics</td><td>Skill</td></tr><tr><td><a class=\"compendium-link\" data-pack=\"l5r5e.core-techniques-shuji\">(shuji) Rank 1-2 Air Shuji</a> (prereq)</td><td>Tech. Grp.</td></tr><tr><td><a class=\"compendium-link\" data-pack=\"l5r5e.core-techniques-shuji\">(shuji) Rank 1-2 Water Shuji</a> (prereq)</td><td>Tech. Grp.</td></tr><tr><td><a class=\"entity-link content-link\" draggable=\"true\" data-uuid=\"Compendium.l5r5e.core-techniques-shuji.L5RCoreShu000075\" data-pack=\"l5r5e.core-techniques-shuji\" data-id=\"L5RCoreShu000075\">(shuji) Fortress of Necessity</a> (prereq)</td><td>Technique</td></tr></table>",
	"book_reference": "Fields of Victory p.135"
},{
    "id": "Renowned Warrior",
	"name": "Renowned Warrior",
	"description": "<h2>Curriculum</h2><table><tr><td>Martial Skills</td><td>Skill Group</td></tr><tr><td>Command</td><td>Skill</td></tr><tr><td>Culture</td><td>Skill</td></tr><tr><td>Performance</td><td>Skill</td></tr><tr><td><a class=\"compendium-link\" data-pack=\"l5r5e.core-techniques-kata\">(kata) Rank 1-2 Kata</a> (prereq)</td><td>Tech. Grp.</td></tr><tr><td><a class=\"entity-link content-link\" draggable=\"true\" data-uuid=\"Compendium.l5r5e.core-techniques-kata.L5RCoreKat000003\" data-pack=\"l5r5e.core-techniques-kata\" data-id=\"L5RCoreKat000003\">(kata) Heartpiercing Strike</a> (prereq)</td><td>Technique</td></tr><tr><td><a class=\"entity-link content-link\" draggable=\"true\" data-uuid=\"Compendium.l5r5e.core-techniques-shuji.L5RCoreShu000079\" data-pack=\"l5r5e.core-techniques-shuji\" data-id=\"L5RCoreShu000079\">(shuji) Righteous Example</a> (prereq)</td><td>Technique</td></tr></table>",
	"book_reference": "Fields of Victory p.135"
},{
    "id": "Spirit Caller",
	"name": "Spirit Caller",
	"description": "<h2>Curriculum</h2><table><tr><td>Scholar Skills</td><td>Skill Group</td></tr><tr><td>Courtesy</td><td>Skill</td></tr><tr><td>Meditation</td><td>Skill</td></tr><tr><td>Performance</td><td>Skill</td></tr><tr><td><a class=\"compendium-link\" data-pack=\"l5r5e.core-techniques-rituals\">(ritual) Rank 1-2 Rituals</a> (prereq)</td><td>Tech. Grp.</td></tr><tr><td><a class=\"entity-link content-link\" draggable=\"true\" data-uuid=\"Compendium.l5r5e.core-techniques-shuji.L5RCoreShu000010\" data-pack=\"l5r5e.core-techniques-shuji\" data-id=\"L5RCoreShu000010\">(shuji) Ancestry Unearthed</a> (prereq)</td><td>Technique</td></tr><tr><td><a class=\"entity-link content-link\" draggable=\"true\" data-uuid=\"Compendium.l5r5e.core-techniques-shuji.L5RCoreShu000083\" data-pack=\"l5r5e.core-techniques-shuji\" data-id=\"L5RCoreShu000083\">(shuji) Preserve Strength</a> (prereq)</td><td>Technique</td></tr></table>",
	"book_reference": "Fields of Victory p.136"
},{
    "id": "Sumai Master",
	"name": "Sumai Master",
	"description": "<h2>Curriculum</h2><table><tr><td>Social Skills</td><td>Skill Group</td></tr><tr><td>Culture</td><td>Skill</td></tr><tr><td>Martial Arts [Unarmed]</td><td>Skill</td></tr><tr><td>Theology</td><td>Skill</td></tr><tr><td><a class=\"compendium-link\" data-pack=\"l5r5e.core-techniques-kata\">(kata) Rank 1-2 Kata</a> (prereq)</td><td>Tech. Grp.</td></tr><tr><td><a class=\"entity-link content-link\" draggable=\"true\" data-uuid=\"Compendium.l5r5e.core-techniques-rituals.L5RCoreRit000026\" data-pack=\"l5r5e.core-techniques-rituals\" data-id=\"L5RCoreRit000026\">(ritual) Beseech Hida's MIght</a> (prereq)</td><td>Technique</td></tr><tr><td><a class=\"entity-link content-link\" draggable=\"true\" data-uuid=\"Compendium.l5r5e.core-techniques-kata.L5RCoreKat000065\" data-pack=\"l5r5e.core-techniques-kata\" data-id=\"L5RCoreKat000065\">(kata) Fierce Badger Style</a> (prereq)</td><td>Technique</td></tr></table>",
	"book_reference": "Fields of Victory p.136"
},{
    "id": "Sword Saint",
	"name": "Sword Saint",
	"description": "<h2>Curriculum</h2><table><tr><td>Martial Arts [Melee]</td><td>Skill</td></tr><tr><td>Meditation</td><td>Skill</td></tr><tr><td>Smithing</td><td>Skill</td></tr><tr><td>Tactics</td><td>Skill</td></tr><tr><td><a class=\"compendium-link\" data-pack=\"l5r5e.core-techniques-kata\">(kata) Rank 1-5 Close Combat Kata</a> (prereq)</td><td>Tech. Grp.</td></tr><tr><td><a class=\"entity-link content-link\" draggable=\"true\" data-uuid=\"Compendium.l5r5e.core-techniques-kata.L5RCoreKat000006\" data-pack=\"l5r5e.core-techniques-kata\" data-id=\"L5RCoreKat000006\">(kata) Soul Sunder</a> (prereq)</td><td>Technique</td></tr><tr><td><a class=\"entity-link content-link\" draggable=\"true\" data-uuid=\"Compendium.l5r5e.core-techniques-shuji.L5RCoreShu000087\" data-pack=\"l5r5e.core-techniques-shuji\" data-id=\"L5RCoreShu000087\">(shuji) Victory Without a Sword</a> (prereq)</td><td>Technique</td></tr></table>",
	"book_reference": "Fields of Victory p.136"
},{
    "id": "War College Graduate",
	"name": "War College Graduate",
	"description": "<h2>Curriculum</h2><table><tr><td>Martial Skills</td><td>Skill Group</td></tr><tr><td>Command</td><td>Skill Group</td></tr><tr><td>Culture</td><td>Skill</td></tr><tr><td>Government</td><td>Skill</td></tr><tr><td><a class=\"compendium-link\" data-pack=\"l5r5e.core-techniques-kata\">(kata) Rank 1-3 Kata</a> (prereq)</td><td>Tech. Grp.</td></tr><tr><td><a class=\"compendium-link\" data-pack=\"l5r5e.core-techniques-shuji\">(shuji) Rank 1-3 Shuji</a> (prereq)</td><td>Tech. Grp.</td></tr><tr><td><a class=\"entity-link content-link\" draggable=\"true\" data-uuid=\"Compendium.l5r5e.core-techniques-rituals.L5RCoreRit000023\" data-pack=\"l5r5e.core-techniques-rituals\" data-id=\"L5RCoreRit000023\">(ritual) Beseech Akodo's Judgment</a> (prereq)</td><td>Technique</td></tr></table>",
	"book_reference": "Fields of Victory p.137"
},{
    "id": "In Service to a Lord",
	"name": "In Service to a Lord",
	"description": "<h2>Curriculum</h2><table><tr><td>Martial Skills</td><td>Skill Group</td></tr><tr><td>Social Skills</td><td>Skill Group</td></tr><tr><td>Culture</td><td>Skill</td></tr><tr><td>Government</td><td>Skill</td></tr><tr><td><a class=\"compendium-link\" data-pack=\"l5r5e.core-techniques-kata\">(kata) Rank 1-2 Kata</a> (prereq)</td><td>Tech. Grp.</td></tr><tr><td><a class=\"entity-link content-link\" draggable=\"true\" data-uuid=\"Compendium.l5r5e.core-techniques-shuji.L5RCoreShu000009\" data-pack=\"l5r5e.core-techniques-shuji\" data-id=\"L5RCoreShu000009\">(shuji) Wolf’s Proposal</a> (prereq)</td><td>Technique</td></tr><tr><td><a class=\"entity-link content-link\" draggable=\"true\" data-uuid=\"Compendium.l5r5e.core-techniques-shuji.L5RCoreShu000066\" data-pack=\"l5r5e.core-techniques-shuji\" data-id=\"L5RCoreShu000066\">(shuji) Fluent Bargaining</a> (prereq)</td><td>Technique</td></tr></table>",
	"book_reference": "Path of Waves p.185"
},{
    "id": "Perfect Land Sect Member",
	"name": "Perfect Land Sect Member",
	"description": "<h2>Curriculum</h2><table><tr><td>Scholar Skills</td><td>Skill Group</td></tr><tr><td>Courtesy</td><td>Skill</td></tr><tr><td>Fitness</td><td>Skill</td></tr><tr><td>Labor</td><td>Skill</td></tr><tr><td><a class=\"compendium-link\" data-pack=\"l5r5e.core-techniques-shuji\">(shuji) Rank 1-2 Water Shuji</a> (prereq)</td><td>Tech. Grp.</td></tr><tr><td><a class=\"entity-link content-link\" draggable=\"true\" data-uuid=\"Compendium.l5r5e.core-techniques-shuji.L5RCoreShu000070\" data-pack=\"l5r5e.core-techniques-shuji\" data-id=\"L5RCoreShu000070\">(shuji) Roar of Encouragement</a> (prereq)</td><td>Technique</td></tr><tr><td><a class=\"entity-link content-link\" draggable=\"true\" data-uuid=\"Compendium.l5r5e.core-techniques-shuji.L5RCoreShu000020\" data-pack=\"l5r5e.core-techniques-shuji\" data-id=\"L5RCoreShu000020\">(shuji) Rallying Cry</a> (prereq)</td><td>Technique</td></tr></table>",
	"book_reference": "Path of Waves p.186"
},{
    "id": "Ghostlands Warrior",
	"name": "Ghostlands Warrior",
	"description": "<h2>Curriculum</h2><table><tr><td>Martial Skills</td><td>Skill Group</td></tr><tr><td>Command</td><td>Skill</td></tr><tr><td>Medicine</td><td>Skill</td></tr><tr><td>Survival</td><td>Skill</td></tr><tr><td><a class=\"entity-link content-link\" draggable=\"true\" data-uuid=\"Compendium.l5r5e.core-techniques-kiho.L5RCoreKih000003\" data-pack=\"l5r5e.core-techniques-kiho\" data-id=\"L5RCoreKih000003\">(kiho) Earth Needs No Eyes</a> (prereq)</td><td>Technique</td></tr><tr><td><a class=\"entity-link content-link\" draggable=\"true\" data-uuid=\"Compendium.l5r5e.core-techniques-kata.L5RCoreKat000009\" data-pack=\"l5r5e.core-techniques-kata\" data-id=\"L5RCoreKat000009\">(kata) Soaring Slice</a> (prereq)</td><td>Technique</td></tr><tr><td><a class=\"entity-link content-link\" draggable=\"true\" data-uuid=\"Compendium.l5r5e.core-techniques-rituals.L5RCoreRit000018\" data-pack=\"l5r5e.core-techniques-rituals\" data-id=\"L5RCoreRit000018\">(ritual) Cleansing of Coral and Gold (Ivory Kingdoms Region)</a> (prereq)</td><td>Technique</td></tr></table>",
	"book_reference": "Path of Waves p.186"
},{
    "id": "Astradhari",
	"name": "Astradhari",
	"description": "<h2>Curriculum</h2><table><tr><td>Scholar Skills</td><td>Skill Group</td></tr><tr><td>Martial Skills</td><td>Skill Group</td></tr><tr><td>Command</td><td>Skill</td></tr><tr><td>Courtesy</td><td>Skill</td></tr><tr><td><a class=\"compendium-link\" data-pack=\"l5r5e.core-techniques-rituals\">(ritual) Rank 1-3 Rituals</a> (prereq)</td><td>Tech. Grp.</td></tr><tr><td><a class=\"entity-link content-link\" draggable=\"true\" data-uuid=\"Compendium.l5r5e.core-techniques-mantra.L5RCoreMan000001\" data-pack=\"l5r5e.core-techniques-mantra\" data-id=\"L5RCoreMan000001\">(mantra) Summon Mantra : [One Implement]</a> (prereq)</td><td>Technique</td></tr><tr><td><a class=\"entity-link content-link\" draggable=\"true\" data-uuid=\"Compendium.l5r5e.core-techniques-shuji.L5RCoreShu000011\" data-pack=\"l5r5e.core-techniques-shuji\" data-id=\"L5RCoreShu000011\">(shuji) Touchstone of Courage</a> (prereq)</td><td>Technique</td></tr></table>",
	"book_reference": "Path of Waves p.187"
},{
    "id": "Awakened Soul",
	"name": "Awakened Soul",
	"description": "<h2>Curriculum</h2><table><tr><td>Social Skills</td><td>Skill Group</td></tr><tr><td>Scholar Skills</td><td>Skill Group</td></tr><tr><td>Culture</td><td>Skill</td></tr><tr><td>Meditation</td><td>Skill</td></tr><tr><td>Survival</td><td>Skill</td></tr><tr><td>Theology</td><td>Skill</td></tr><tr><td><a class=\"entity-link content-link\" draggable=\"true\" data-uuid=\"Compendium.l5r5e.core-techniques-kiho.L5RCoreKih000038\" data-pack=\"l5r5e.core-techniques-kiho\" data-id=\"L5RCoreKih000038\">(kiho) Eternal Mind’s Gate</a> (prereq)</td><td>Technique</td></tr><tr><td><a class=\"entity-link content-link\" draggable=\"true\" data-uuid=\"Compendium.l5r5e.core-techniques-rituals.L5RCoreRit000035\" data-pack=\"l5r5e.core-techniques-rituals\" data-id=\"L5RCoreRit000035\">(ritual) Trance of Lives Past</a> (prereq)</td><td>Technique</td></tr></table>",
	"book_reference": "Writ of the Wild p.142"
},{
    "id": "Forester",
	"name": "Forester",
	"description": "<h2>Curriculum</h2><table><tr><td>Social Skills</td><td>Skill Group</td></tr><tr><td>Scholar Skills</td><td>Skill Group</td></tr><tr><td>Courtesy</td><td>Skill</td></tr><tr><td>Sentiment</td><td>Skill</td></tr><tr><td>Survival</td><td>Skill</td></tr><tr><td>Theology</td><td>Skill</td></tr><tr><td><a class=\"compendium-link\" data-pack=\"l5r5e.core-techniques-invocations\">(invocation) Rank 1-2 Earth & Water Invocations</a> (prereq)</td><td>Tech. Grp.</td></tr><tr><td><a class=\"compendium-link\" data-pack=\"l5r5e.core-techniques-shuji\">(shuji) Rank 1-3 Shūji</a> (prereq)</td><td>Tech. Grp.</td></tr></table>",
	"book_reference": "Writ of the Wild p.142"
},{
    "id": "Temple Abbot",
	"name": "Temple Abbot",
	"description": "<h2>Curriculum</h2><table><tr><td>Social Skills</td><td>Skill Group</td></tr><tr><td>Scholar Skills</td><td>Skill Group</td></tr><tr><td>Culture</td><td>Skill</td></tr><tr><td>Meditation</td><td>Skill</td></tr><tr><td>Theology</td><td>Skill</td></tr><tr><td><a class=\"entity-link content-link\" draggable=\"true\" data-uuid=\"Compendium.l5r5e.core-techniques-rituals.L5RCoreRit000004\" data-pack=\"l5r5e.core-techniques-rituals\" data-id=\"L5RCoreRit000004\">(ritual) Cleansing Rite</a> (prereq)</td><td>Technique</td></tr><tr><td><a class=\"entity-link content-link\" draggable=\"true\" data-uuid=\"Compendium.l5r5e.core-techniques-kiho.L5RCoreKih000025\" data-pack=\"l5r5e.core-techniques-kiho\" data-id=\"L5RCoreKih000025\">(kiho) Rejuvenating Breath</a> (prereq)</td><td>Technique</td></tr><tr><td><a class=\"entity-link content-link\" draggable=\"true\" data-uuid=\"Compendium.l5r5e.core-techniques-shuji.L5RCoreShu000011\" data-pack=\"l5r5e.core-techniques-shuji\" data-id=\"L5RCoreShu000011\">(shuji) Touchstone of Courage</a> (prereq)</td><td>Technique</td></tr></table>",
	"book_reference": "Writ of the Wild p.143"
},{
    "id": "Yōkai Hunter",
	"name": "Yōkai Hunter",
	"description": "<h2>Curriculum</h2><table><tr><td>Scholar Skills</td><td>Skill Group</td></tr><tr><td>Martial Skills</td><td>Skill Group</td></tr><tr><td>Command</td><td>Skill</td></tr><tr><td>Courtesy</td><td>Skill</td></tr><tr><td>Survival</td><td>Skill</td></tr><tr><td><a class=\"entity-link content-link\" draggable=\"true\" data-uuid=\"Compendium.l5r5e.core-techniques-kiho.L5RCoreKih000030\" data-pack=\"l5r5e.core-techniques-kiho\" data-id=\"L5RCoreKih000030\">(kiho) Blistering Retribution</a> (prereq)</td><td>Technique</td></tr><tr><td><a class=\"entity-link content-link\" draggable=\"true\" data-uuid=\"Compendium.l5r5e.core-techniques-kata.L5RCoreKat000070\" data-pack=\"l5r5e.core-techniques-kata\" data-id=\"L5RCoreKat000070\">(kata) Swallow’s Dart Style</a> (prereq)</td><td>Technique</td></tr><tr><td><a class=\"entity-link content-link\" draggable=\"true\" data-uuid=\"Compendium.l5r5e.core-techniques-kata.L5RCoreKat000071\" data-pack=\"l5r5e.core-techniques-kata\" data-id=\"L5RCoreKat000071\">(kata) Tiger’s Lunge Style</a> (prereq)</td><td>Technique</td></tr></table>",
	"book_reference": "Writ of the Wild p.143"
},{
    "id": "Bond with a spirit",
	"name": "Bond with a spirit",
	"description": "<h2>Curriculum</h2><table><tr><td>Scholar Skills</td><td>Skill Group</td></tr><tr><td>Aesthetics</td><td>Skill</td></tr><tr><td>Games</td><td>Skill</td></tr><tr><td>Meditation</td><td>Skill</td></tr><tr><td><a class=\"compendium-link\" data-pack=\"l5r5e.core-techniques-invocations\">(invocation) Rank 1 Spirit's Elements Invocations</a> (prereq)</td><td>Tech. Grp.</td></tr><tr><td><a class=\"entity-link content-link\" draggable=\"true\" data-uuid=\"Compendium.l5r5e.core-techniques-rituals.L5RCoreRit000002\" data-pack=\"l5r5e.core-techniques-rituals\" data-id=\"L5RCoreRit000002\">(ritual) Commune with the Spirits</a> (prereq)</td><td>Technique</td></tr><tr><td><a class=\"entity-link content-link\" draggable=\"true\" data-uuid=\"Compendium.l5r5e.core-techniques-rituals.L5RCoreRit000022\" data-pack=\"l5r5e.core-techniques-rituals\" data-id=\"L5RCoreRit000022\">(ritual) Blessing of Fertile Fields</a> (prereq)</td><td>Technique</td></tr></table>",
	"book_reference": "Celestial Realms p.140"
},{
    "id": "Moon cultist",
	"name": "Moon cultist",
	"description": "<h2>Curriculum</h2><table><tr><td>Scholar Skills</td><td>Skill Group</td></tr><tr><td>Composition</td><td>Skill</td></tr><tr><td>Courtesy</td><td>Skill</td></tr><tr><td>Fitness</td><td>Skill</td></tr><tr><td><a class=\"compendium-link\" data-pack=\"l5r5e.core-techniques-invocations\">(invocation) Rank 1-2 Water Invocations</a></td><td>Tech. Grp.</td></tr><tr><td><a class=\"entity-link content-link\" draggable=\"true\" data-uuid=\"Compendium.l5r5e.core-techniques-invocations.L5RCoreInv000052\" data-pack=\"l5r5e.core-techniques-invocations\" data-id=\"L5RCoreInv000052\">(invocation) Hands of the Tides</a> (prereq)</td><td>Technique</td></tr><tr><td><a class=\"entity-link content-link\" draggable=\"true\" data-uuid=\"Compendium.l5r5e.core-techniques-rituals.L5RCoreRit000010\" data-pack=\"l5r5e.core-techniques-rituals\" data-id=\"L5RCoreRit000010\">(ritual) Whispers to the Moon (Moon Cultist)</a> (prereq)</td><td>Technique</td></tr></table>",
	"book_reference": "Celestial Realms p.140"
}]
}
