{
"label": "Techniques Ninjutsu",
"mapping": {
    "description": "system.description",
    "book_reference": "system.book_reference"
},
"entries": [{
    "id": "Deadly Sting",
	"name": "Deadly Sting",
	"description": "",
	"book_reference": "Core Rulebook p.226"
},{
    "id": "Skulk",
	"name": "Skulk",
	"description": "",
	"book_reference": "Core Rulebook p.226"
},{
    "id": "Silencing Stroke",
	"name": "Silencing Stroke",
	"description": "",
	"book_reference": "Core Rulebook p.227"
},{
    "id": "Noxious Cloud",
	"name": "Noxious Cloud",
	"description": "",
	"book_reference": "Core Rulebook p.227"
},{
    "id": "Artful Alibi",
	"name": "Artful Alibi",
	"description": "",
	"book_reference": "Court of Stones p.114"
},{
    "id": "Cunning Distraction",
	"name": "Cunning Distraction",
	"description": "",
	"book_reference": "Court of Stones p.114"
},{
    "id": "Deceitful Strike",
	"name": "Deceitful Strike",
	"description": "",
	"book_reference": "Court of Stones p.114"
},{
    "id": "Like a Ghost",
	"name": "Like a Ghost",
	"description": "",
	"book_reference": "Court of Stones p.114"
},{
    "id": "Silent Elimination",
	"name": "Silent Elimination",
	"description": "",
	"book_reference": "Court of Stones p.115"
},{
    "id": "Slicing Wind Kick",
	"name": "Slicing Wind Kick",
	"description": "",
	"book_reference": "Court of Stones p.115"
},{
    "id": "Stillness of Death",
	"name": "Stillness of Death",
	"description": "",
	"book_reference": "Court of Stones p.115"
},{
    "id": "To Float or Sink",
	"name": "To Float or Sink",
	"description": "",
	"book_reference": "Court of Stones p.115"
},{
    "id": "What's Yours is Mine",
	"name": "What's Yours is Mine",
	"description": "",
	"book_reference": "Court of Stones p.116"
},{
    "id": "Employ Terrible Thunder",
	"name": "Employ Terrible Thunder",
	"description": "",
	"book_reference": "Fields of Victory p.105"
},{
    "id": "Swift Scouting",
	"name": "Swift Scouting",
	"description": "",
	"book_reference": "Fields of Victory p.105"
},{
    "id": "The Patient Viper",
	"name": "The Patient Viper",
	"description": "",
	"book_reference": "Fields of Victory p.106"
},{
    "id": "Vanish in the Shadows",
	"name": "Vanish in the Shadows",
	"description": "",
	"book_reference": "Fields of Victory p.106"
},{
    "id": "Wreak Havoc",
	"name": "Wreak Havoc",
	"description": "",
	"book_reference": "Fields of Victory p.107"
}]
}
