{
"label": "Boons",
"mapping": {
	"description": "data.description",
	"book_reference": "data.book_reference"
},
"entries": [{
    "id": "Agility of Legend [Armor]",
	"name": "Agility of Legend [Armor]",
	"description": "",
	"book_reference": "Path of Waves p.104"
},{
    "id": "Animal Transformation [Projectile]",
	"name": "Animal Transformation [Projectile]",
	"description": "",
	"book_reference": "Path of Waves p.102"
},{
    "id": "Aura of Power [General]",
	"name": "Aura of Power [General]",
	"description": "",
	"book_reference": "Path of Waves p.101"
},{
    "id": "Beguile the Senses [General]",
	"name": "Beguile the Senses [General]",
	"description": "",
	"book_reference": "Path of Waves p.101"
},{
    "id": "Binding [Projectile]",
	"name": "Binding [Projectile]",
	"description": "",
	"book_reference": "Path of Waves p.102"
},{
    "id": "Blessed Revitalization [General]",
	"name": "Blessed Revitalization [General]",
	"description": "",
	"book_reference": "Path of Waves p.101"
},{
    "id": "Burst of Force [Armor]",
	"name": "Burst of Force [Armor]",
	"description": "",
	"book_reference": "Path of Waves p.104"
},{
    "id": "Celestial Step [General]",
	"name": "Celestial Step [General]",
	"description": "",
	"book_reference": "Path of Waves p.102"
},{
    "id": "Cosmic Devastation [General]",
	"name": "Cosmic Devastation [General]",
	"description": "",
	"book_reference": "Path of Waves p.102"
},{
    "id": "Deadly Venom [Projectile]",
	"name": "Deadly Venom [Projectile]",
	"description": "",
	"book_reference": "Path of Waves p.103"
},{
    "id": "Defensive [General]",
	"name": "Defensive [General]",
	"description": "",
	"book_reference": "Path of Waves p.102"
},{
    "id": "Detonation [Projectile]",
	"name": "Detonation [Projectile]",
	"description": "",
	"book_reference": "Path of Waves p.103"
},{
    "id": "Duplication [Projectile]",
	"name": "Duplication [Projectile]",
	"description": "",
	"book_reference": "Path of Waves p.103"
},{
    "id": "Earthshaker [General]",
	"name": "Earthshaker [General]",
	"description": "",
	"book_reference": "Path of Waves p.102"
},{
    "id": "Flurry [General]",
	"name": "Flurry [General]",
	"description": "",
	"book_reference": "Path of Waves p.102"
},{
    "id": "Fortress Breaker [Projectile]",
	"name": "Fortress Breaker [Projectile]",
	"description": "",
	"book_reference": "Path of Waves p.103"
},{
    "id": "Grand Inspiration [Utility Object]",
	"name": "Grand Inspiration [Utility Object]",
	"description": "",
	"book_reference": "Path of Waves p.104"
},{
    "id": "Harm Returned [Armor]",
	"name": "Harm Returned [Armor]",
	"description": "",
	"book_reference": "Path of Waves p.104"
},{
    "id": "Illusions Shattered [Utility Object]",
	"name": "Illusions Shattered [Utility Object]",
	"description": "",
	"book_reference": "Path of Waves p.104"
},{
    "id": "Independence [Melee Weapon]",
	"name": "Independence [Melee Weapon]",
	"description": "",
	"book_reference": "Path of Waves p.103"
},{
    "id": "Inexorable [Melee Weapon]",
	"name": "Inexorable [Melee Weapon]",
	"description": "",
	"book_reference": "Path of Waves p.103"
},{
    "id": "Inviolable [Armor]",
	"name": "Inviolable [Armor]",
	"description": "",
	"book_reference": "Path of Waves p.104"
},{
    "id": "Mark of Doom [Utility Object]",
	"name": "Mark of Doom [Utility Object]",
	"description": "",
	"book_reference": "Path of Waves p.104"
},{
    "id": "Obliteration [Projectile]",
	"name": "Obliteration [Projectile]",
	"description": "",
	"book_reference": "Path of Waves p.103"
},{
    "id": "Overwhelming Force [General]",
	"name": "Overwhelming Force [General]",
	"description": "",
	"book_reference": "Path of Waves p.102"
},{
    "id": "Overwhelming Radiance [Armor]",
	"name": "Overwhelming Radiance [Armor]",
	"description": "",
	"book_reference": "Path of Waves p.104"
},{
    "id": "Resounding Arrival [Melee Weapon]",
	"name": "Resounding Arrival [Melee Weapon]",
	"description": "",
	"book_reference": "Path of Waves p.103"
},{
    "id": "Resounding Rhetoric [Utility Object]",
	"name": "Resounding Rhetoric [Utility Object]",
	"description": "",
	"book_reference": "Path of Waves p.104"
},{
    "id": "Returning [Projectile]",
	"name": "Returning [Projectile]",
	"description": "",
	"book_reference": "Path of Waves p.103"
},{
    "id": "Rising Power [Melee Weapon]",
	"name": "Rising Power [Melee Weapon]",
	"description": "",
	"book_reference": "Path of Waves p.103"
},{
    "id": "Root of Language [Utility Object]",
	"name": "Root of Language [Utility Object]",
	"description": "",
	"book_reference": "Path of Waves p.104"
},{
    "id": "Shifting Shape [General]",
	"name": "Shifting Shape [General]",
	"description": "",
	"book_reference": "Path of Waves p.102"
},{
    "id": "Soothing Words [Utility Object]",
	"name": "Soothing Words [Utility Object]",
	"description": "",
	"book_reference": "Path of Waves p.105"
},{
    "id": "Subterranean Secrets [Utility Object]",
	"name": "Subterranean Secrets [Utility Object]",
	"description": "",
	"book_reference": "Path of Waves p.105"
},{
    "id": "Transfiguration [General]",
	"name": "Transfiguration [General]",
	"description": "",
	"book_reference": "Path of Waves p.102"
},{
    "id": "Unassuming [General]",
	"name": "Unassuming [General]",
	"description": "",
	"book_reference": "Path of Waves p.102"
},{
    "id": "Unerring [Projectile]",
	"name": "Unerring [Projectile]",
	"description": "",
	"book_reference": "Path of Waves p.103"
},{
    "id": "Unleashed Fury [Melee Weapon]",
	"name": "Unleashed Fury [Melee Weapon]",
	"description": "",
	"book_reference": "Path of Waves p.104"
},{
    "id": "Unlimited Negation [Utility Object]",
	"name": "Unlimited Negation [Utility Object]",
	"description": "",
	"book_reference": "Path of Waves p.105"
},{
    "id": "Vitality [Utility Object]",
	"name": "Vitality [Utility Object]",
	"description": "",
	"book_reference": "Path of Waves p.105"
}]
}